%YAML 1.1
%TAG !u! tag:unity3d.com,2011:
--- !u!114 &11400000
MonoBehaviour:
  m_ObjectHideFlags: 0
  m_CorrespondingSourceObject: {fileID: 0}
  m_PrefabInstance: {fileID: 0}
  m_PrefabAsset: {fileID: 0}
  m_GameObject: {fileID: 0}
  m_Enabled: 1
  m_EditorHideFlags: 0
  m_Script: {fileID: 11500000, guid: 7341cd57afb0fe745b3575891b4f518c, type: 3}
  m_Name: GameWinCutscene
  m_EditorClassIdentifier: 
  duration: 17
  images:
  - at: 0
    sprite: {fileID: 21300000, guid: 9689bc02bc29dd0438cbd7f2b63b37a6, type: 3}
    color: {r: 1, g: 1, b: 1, a: 1}
  - at: 11
    sprite: {fileID: 21300000, guid: aa57ca253ff6c544b98abe0c87f565ce, type: 3}
    color: {r: 1, g: 1, b: 1, a: 1}
  - at: 15
    sprite: {fileID: 0}
    color: {r: 0, g: 0, b: 0, a: 1}
  audioClips:
  - at: 1.5
    clip: {fileID: 8300000, guid: bb628c3bdf0d68f4eafc484ea6f88350, type: 3}
    subtitle: 
