%YAML 1.1
%TAG !u! tag:unity3d.com,2011:
--- !u!114 &11400000
MonoBehaviour:
  m_ObjectHideFlags: 0
  m_CorrespondingSourceObject: {fileID: 0}
  m_PrefabInstance: {fileID: 0}
  m_PrefabAsset: {fileID: 0}
  m_GameObject: {fileID: 0}
  m_Enabled: 1
  m_EditorHideFlags: 0
  m_Script: {fileID: 11500000, guid: 4beab60d43552cb4d89247b229ee1117, type: 3}
  m_Name: Enviro Profile 2.0
  m_EditorClassIdentifier: 
  version: 2.0.2
  lightSettings:
    LightColor:
      serializedVersion: 2
      key0: {r: 0.3523051, g: 0.5677263, b: 0.8584906, a: 1}
      key1: {r: 0.122641504, g: 0.122641504, b: 0.122641504, a: 1}
      key2: {r: 0.7882353, g: 0.53333336, b: 0.25882354, a: 0}
      key3: {r: 0.91764706, g: 0.78431374, b: 0.6431373, a: 0}
      key4: {r: 0.91764706, g: 0.8627451, b: 0.80784315, a: 0}
      key5: {r: 0, g: 0, b: 0, a: 0}
      key6: {r: 0, g: 0, b: 0, a: 0}
      key7: {r: 0, g: 0, b: 0, a: 0}
      ctime0: 0
      ctime1: 30146
      ctime2: 33423
      ctime3: 36700
      ctime4: 65535
      ctime5: 0
      ctime6: 0
      ctime7: 0
      atime0: 0
      atime1: 65535
      atime2: 0
      atime3: 0
      atime4: 0
      atime5: 0
      atime6: 0
      atime7: 0
      m_Mode: 0
      m_NumColorKeys: 5
      m_NumAlphaKeys: 2
    directLightSunIntensity:
      serializedVersion: 2
      m_Curve:
      - serializedVersion: 3
        time: 0.00011615036
        value: 0.14014755
        inSlope: 0
        outSlope: 0
        tangentMode: 0
        weightedMode: 0
        inWeight: 0.33333334
        outWeight: 0.33333334
      - serializedVersion: 3
        time: 0.4247302
        value: 0.140625
        inSlope: 0
        outSlope: 0
        tangentMode: 0
        weightedMode: 0
        inWeight: 0.33333334
        outWeight: 0.33333334
      - serializedVersion: 3
        time: 0.5
        value: 0.75
        inSlope: 5
        outSlope: 5
        tangentMode: 0
        weightedMode: 0
        inWeight: 0.33333334
        outWeight: 0.33333334
      - serializedVersion: 3
        time: 1
        value: 1.5
        inSlope: 0
        outSlope: 0
        tangentMode: 0
        weightedMode: 0
        inWeight: 0.33333334
        outWeight: 0.33333334
      m_PreInfinity: 2
      m_PostInfinity: 2
      m_RotationOrder: 4
    directLightMoonIntensity:
      serializedVersion: 2
      m_Curve:
      - serializedVersion: 3
        time: -0.0015716553
        value: 0.12895751
        inSlope: 0
        outSlope: 0
        tangentMode: 0
        weightedMode: 0
        inWeight: 0.33333334
        outWeight: 0.33333334
      - serializedVersion: 3
        time: 0.41682616
        value: 0.10130859
        inSlope: 0
        outSlope: 0
        tangentMode: 0
        weightedMode: 0
        inWeight: 0.33333334
        outWeight: 0.33333334
      - serializedVersion: 3
        time: 0.5
        value: 0.6
        inSlope: 2
        outSlope: 2
        tangentMode: 0
        weightedMode: 0
        inWeight: 0.33333334
        outWeight: 0.33333334
      - serializedVersion: 3
        time: 1
        value: 1
        inSlope: 0
        outSlope: 0
        tangentMode: 0
        weightedMode: 0
        inWeight: 0.33333334
        outWeight: 0.33333334
      m_PreInfinity: 2
      m_PostInfinity: 2
      m_RotationOrder: 4
    shadowIntensity:
      serializedVersion: 2
      m_Curve:
      - serializedVersion: 3
        time: 0.043435443
        value: 0.75078094
        inSlope: 0
        outSlope: 0
        tangentMode: 0
        weightedMode: 0
        inWeight: 0.33333334
        outWeight: 0.33333334
      - serializedVersion: 3
        time: 0.4910526
        value: 0.71059424
        inSlope: -0.05505228
        outSlope: -0.05505228
        tangentMode: 0
        weightedMode: 0
        inWeight: 0.33333334
        outWeight: 0.33333334
      - serializedVersion: 3
        time: 1
        value: 0.70606995
        inSlope: 0
        outSlope: 0
        tangentMode: 0
        weightedMode: 0
        inWeight: 0.33333334
        outWeight: 0.33333334
      m_PreInfinity: 2
      m_PostInfinity: 2
      m_RotationOrder: 0
    directLightAngleOffset: 0
    ambientMode: 1
    ambientIntensity:
      serializedVersion: 2
      m_Curve:
      - serializedVersion: 3
        time: 0.02627761
        value: 0.20126718
        inSlope: 0
        outSlope: 0
        tangentMode: 0
        weightedMode: 0
        inWeight: 0.33333334
        outWeight: 0.33333334
      - serializedVersion: 3
        time: 1
        value: 0.5934671
        inSlope: 0
        outSlope: 0
        tangentMode: 0
        weightedMode: 0
        inWeight: 0.33333334
        outWeight: 0.33333334
      m_PreInfinity: 2
      m_PostInfinity: 2
      m_RotationOrder: 0
    ambientSkyColor:
      serializedVersion: 2
      key0: {r: 0.19401923, g: 0.2405049, b: 0.3773585, a: 1}
      key1: {r: 0.46075112, g: 0.48189357, b: 0.5849056, a: 1}
      key2: {r: 0.8396226, g: 0.41593373, b: 0.1782218, a: 0}
      key3: {r: 0.2988608, g: 0.6369185, b: 0.8679245, a: 0}
      key4: {r: 0.2988608, g: 0.6369185, b: 0.8679245, a: 0}
      key5: {r: 0.88235295, g: 0.7727884, b: 0.2745098, a: 0}
      key6: {r: 0.27189392, g: 0.63497704, b: 0.8867924, a: 0}
      key7: {r: 0, g: 0, b: 0, a: 0}
      ctime0: 0
      ctime1: 25829
      ctime2: 32189
      ctime3: 37201
      ctime4: 55512
      ctime5: 61102
      ctime6: 65535
      ctime7: 0
      atime0: 0
      atime1: 65535
      atime2: 0
      atime3: 0
      atime4: 0
      atime5: 0
      atime6: 0
      atime7: 0
      m_Mode: 0
      m_NumColorKeys: 7
      m_NumAlphaKeys: 2
    ambientEquatorColor:
      serializedVersion: 2
      key0: {r: 0.46226418, g: 0.13393854, b: 0.10684408, a: 1}
      key1: {r: 0.22748311, g: 0.30471227, b: 0.6792453, a: 1}
      key2: {r: 0, g: 0, b: 0, a: 0}
      key3: {r: 0, g: 0, b: 0, a: 0}
      key4: {r: 0, g: 0, b: 0, a: 0}
      key5: {r: 0, g: 0, b: 0, a: 0}
      key6: {r: 0, g: 0, b: 0, a: 0}
      key7: {r: 0, g: 0, b: 0, a: 0}
      ctime0: 0
      ctime1: 65535
      ctime2: 0
      ctime3: 0
      ctime4: 0
      ctime5: 0
      ctime6: 0
      ctime7: 0
      atime0: 0
      atime1: 65535
      atime2: 0
      atime3: 0
      atime4: 0
      atime5: 0
      atime6: 0
      atime7: 0
      m_Mode: 0
      m_NumColorKeys: 2
      m_NumAlphaKeys: 2
    ambientGroundColor:
      serializedVersion: 2
      key0: {r: 0.021092921, g: 0.021092921, b: 0.05660379, a: 1}
      key1: {r: 0.5849056, g: 0.3466711, b: 0.20140618, a: 1}
      key2: {r: 0, g: 0, b: 0, a: 0}
      key3: {r: 0, g: 0, b: 0, a: 0}
      key4: {r: 0, g: 0, b: 0, a: 0}
      key5: {r: 0, g: 0, b: 0, a: 0}
      key6: {r: 0, g: 0, b: 0, a: 0}
      key7: {r: 0, g: 0, b: 0, a: 0}
      ctime0: 0
      ctime1: 65535
      ctime2: 0
      ctime3: 0
      ctime4: 0
      ctime5: 0
      ctime6: 0
      ctime7: 0
      atime0: 0
      atime1: 65535
      atime2: 0
      atime3: 0
      atime4: 0
      atime5: 0
      atime6: 0
      atime7: 0
      m_Mode: 0
      m_NumColorKeys: 2
      m_NumAlphaKeys: 2
    globalReflections: 0
    globalReflectionsIntensity: 0.5
    globalReflectionsUpdate: 0.025
    globalReflectionsScale: 1
  volumeLightSettings:
    Resolution: 2
    dirVolumeLighting: 0
    SampleCount: 14
    ScatteringCoef: 0.703
    ExtinctionCoef: 0.0793
    Anistropy: 0.675
    MaxRayLength: 5
    directLightNoise: 0
    noiseIntensity: 1
    noiseIntensityOffset: 0.315
    noiseScale: 0.01
    noiseVelocity: {x: 3, y: 1.5}
  skySettings:
    skyboxMode: 0
    customSkyboxMaterial: {fileID: 10304, guid: 0000000000000000f000000000000000,
      type: 0}
    customSkyboxColor: {r: 0.18396229, g: 0.79165, b: 1, a: 0.76862746}
    blackGroundMode: 0
    waveLength: {x: 540, y: 496, z: 437}
    rayleigh: 5
    turbidity: 1
    mie: 8
    g: 0.9
    scatteringCurve:
      serializedVersion: 2
      m_Curve:
      - serializedVersion: 3
        time: 0.020439148
        value: 12.405767
        inSlope: 0
        outSlope: 0
        tangentMode: 0
        weightedMode: 0
        inWeight: 0.33333334
        outWeight: 0.33333334
      - serializedVersion: 3
        time: 0.5
        value: -10
        inSlope: 55
        outSlope: 55
        tangentMode: 0
        weightedMode: 0
        inWeight: 0.33333334
        outWeight: 0.33333334
      - serializedVersion: 3
        time: 0.52
        value: 6.5
        inSlope: 35
        outSlope: 35
        tangentMode: 0
        weightedMode: 0
        inWeight: 0.33333334
        outWeight: 0.33333334
      - serializedVersion: 3
        time: 1
        value: 11
        inSlope: 0
        outSlope: 0
        tangentMode: 0
        weightedMode: 0
        inWeight: 0.33333334
        outWeight: 0.33333334
      m_PreInfinity: 2
      m_PostInfinity: 2
      m_RotationOrder: 4
    scatteringColor:
      serializedVersion: 2
      key0: {r: 0.5176471, g: 0.57254905, b: 0.78431374, a: 1}
      key1: {r: 0.5176471, g: 0.57254905, b: 0.78431374, a: 1}
      key2: {r: 1, g: 0.7137255, b: 0.6117647, a: 0}
      key3: {r: 0.8235294, g: 0.8235294, b: 0.8235294, a: 0}
      key4: {r: 0.8235294, g: 0.8235294, b: 0.8235294, a: 0}
      key5: {r: 0, g: 0, b: 0, a: 0}
      key6: {r: 0, g: 0, b: 0, a: 0}
      key7: {r: 0, g: 0, b: 0, a: 0}
      ctime0: 0
      ctime1: 29491
      ctime2: 34537
      ctime3: 49151
      ctime4: 65535
      ctime5: 0
      ctime6: 0
      ctime7: 0
      atime0: 0
      atime1: 65535
      atime2: 0
      atime3: 0
      atime4: 0
      atime5: 0
      atime6: 0
      atime7: 0
      m_Mode: 0
      m_NumColorKeys: 5
      m_NumAlphaKeys: 2
    sunAndMoonPosition: 1
    sunIntensity: 100
    sunDiskScale: 20
    sunDiskIntensity: 3
    sunDiskColor:
      serializedVersion: 2
      key0: {r: 0.039215688, g: 0.011764706, b: 0, a: 1}
      key1: {r: 1, g: 0.38431373, b: 0.06666667, a: 1}
      key2: {r: 1, g: 0.4117647, b: 0.09019608, a: 0}
      key3: {r: 1, g: 0.8862745, b: 0.79607844, a: 0}
      key4: {r: 1, g: 1, b: 1, a: 0}
      key5: {r: 0, g: 0, b: 0, a: 0}
      key6: {r: 0, g: 0, b: 0, a: 0}
      key7: {r: 0, g: 0, b: 0, a: 0}
      ctime0: 0
      ctime1: 29491
      ctime2: 36044
      ctime3: 49151
      ctime4: 65535
      ctime5: 0
      ctime6: 0
      ctime7: 0
      atime0: 0
      atime1: 65535
      atime2: 0
      atime3: 0
      atime4: 0
      atime5: 0
      atime6: 0
      atime7: 0
      m_Mode: 0
      m_NumColorKeys: 5
      m_NumAlphaKeys: 2
    renderMoon: 1
    moonPhaseMode: 1
    moonTexture: {fileID: 2800000, guid: a1ecb87143451c742941779d0eb2e32f, type: 3}
    moonColor: {r: 0.9622642, g: 0.9622642, b: 0.9622642, a: 1}
    moonBrightness: 2.12
    moonSize: 18.7
    moonGlow:
      serializedVersion: 2
      m_Curve:
      - serializedVersion: 3
        time: -0.014102672
        value: 1.3179907
        inSlope: 0
        outSlope: 0
        tangentMode: 0
        weightedMode: 0
        inWeight: 0.33333334
        outWeight: 0.33333334
      - serializedVersion: 3
        time: 0.48332822
        value: 0.056243896
        inSlope: 0
        outSlope: 0
        tangentMode: 0
        weightedMode: 0
        inWeight: 0.33333334
        outWeight: 0.33333334
      - serializedVersion: 3
        time: 1
        value: 0
        inSlope: 0
        outSlope: 0
        tangentMode: 0
        weightedMode: 0
        inWeight: 0.33333334
        outWeight: 0.33333334
      m_PreInfinity: 2
      m_PostInfinity: 2
      m_RotationOrder: 0
    moonGlowColor: {r: 0.5503293, g: 0.74423724, b: 0.7830189, a: 1}
    startMoonPhase: 0
    skyLuminence:
      serializedVersion: 2
      m_Curve:
      - serializedVersion: 3
        time: 0.0031433105
        value: 0.24975586
        inSlope: 0
        outSlope: 0
        tangentMode: 0
        weightedMode: 0
        inWeight: 0.33333334
        outWeight: 0.33333334
      - serializedVersion: 3
        time: 0.26559836
        value: 0.32253987
        inSlope: 0.2257807
        outSlope: 0.2257807
        tangentMode: 0
        weightedMode: 0
        inWeight: 0.33333334
        outWeight: 0.33333334
      - serializedVersion: 3
        time: 0.5
        value: 0.14452556
        inSlope: 0
        outSlope: 0
        tangentMode: 0
        weightedMode: 0
        inWeight: 0.33333334
        outWeight: 0.33333334
      - serializedVersion: 3
        time: 0.62
        value: 0.105
        inSlope: 0
        outSlope: 0
        tangentMode: 0
        weightedMode: 0
        inWeight: 0.33333334
        outWeight: 0.33333334
      - serializedVersion: 3
        time: 1
        value: 0.1
        inSlope: 0
        outSlope: 0
        tangentMode: 0
        weightedMode: 0
        inWeight: 0.33333334
        outWeight: 0.33333334
      m_PreInfinity: 2
      m_PostInfinity: 2
      m_RotationOrder: 0
    skyColorPower:
      serializedVersion: 2
      m_Curve:
      - serializedVersion: 3
        time: 0
        value: 1.5
        inSlope: 0
        outSlope: 0
        tangentMode: 0
        weightedMode: 0
        inWeight: 0.33333334
        outWeight: 0.33333334
      - serializedVersion: 3
        time: 1
        value: 1.25
        inSlope: 0
        outSlope: 0
        tangentMode: 0
        weightedMode: 0
        inWeight: 0.33333334
        outWeight: 0.33333334
      m_PreInfinity: 2
      m_PostInfinity: 2
      m_RotationOrder: 4
    skyExposure: 1.5
    starsCubeMap: {fileID: 8900000, guid: 39b57397df78c0c44a8f13e715e91a6a, type: 3}
    starsIntensity:
      serializedVersion: 2
      m_Curve:
      - serializedVersion: 3
        time: 0
        value: 0.3
        inSlope: 0
        outSlope: 0
        tangentMode: 0
        weightedMode: 0
        inWeight: 0.33333334
        outWeight: 0.33333334
      - serializedVersion: 3
        time: 0.5
        value: 0.015
        inSlope: 0
        outSlope: 0
        tangentMode: 0
        weightedMode: 0
        inWeight: 0.33333334
        outWeight: 0.33333334
      - serializedVersion: 3
        time: 0.6
        value: 0
        inSlope: 0
        outSlope: 0
        tangentMode: 0
        weightedMode: 0
        inWeight: 0.33333334
        outWeight: 0.33333334
      - serializedVersion: 3
        time: 1
        value: 0
        inSlope: 0
        outSlope: 0
        tangentMode: 0
        weightedMode: 0
        inWeight: 0.33333334
        outWeight: 0.33333334
      m_PreInfinity: 2
      m_PostInfinity: 2
      m_RotationOrder: 4
    galaxyCubeMap: {fileID: 8900000, guid: 12e8f6e76b98e2a41b7ac737b49f0d7d, type: 3}
    galaxyIntensity:
      serializedVersion: 2
      m_Curve:
      - serializedVersion: 3
        time: 0
        value: 0.4
        inSlope: 0
        outSlope: 0
        tangentMode: 0
        weightedMode: 0
        inWeight: 0
        outWeight: 0
      - serializedVersion: 3
        time: 0.5
        value: 0.015
        inSlope: 0
        outSlope: 0
        tangentMode: 0
        weightedMode: 0
        inWeight: 0
        outWeight: 0
      - serializedVersion: 3
        time: 0.6
        value: 0
        inSlope: 0
        outSlope: 0
        tangentMode: 0
        weightedMode: 0
        inWeight: 0
        outWeight: 0
      - serializedVersion: 3
        time: 1
        value: 0
        inSlope: 0
        outSlope: 0
        tangentMode: 0
        weightedMode: 0
        inWeight: 0
        outWeight: 0
      m_PreInfinity: 2
      m_PostInfinity: 2
      m_RotationOrder: 4
    noiseScale: 10
    noiseIntensity: 0.25
  cloudsSettings:
    reprojectionPixelSize: 2
    cloudsQuality: 0
    cloudsWorldScale: 120000
    bottomCloudHeight: 3500
    topCloudHeight: 4750
    useWindZoneDirection: 1
    cloudsTimeScale: 1
    cloudsWindStrengthModificator: 0.025
    cloudsWindDirectionX: 0
    cloudsWindDirectionY: -1
    raymarchSteps: 75
    stepsInDepthModificator: 0.7
    cloudsRenderResolution: 2
    hgPhase: 0.5
    primaryAttenuation: 5
    secondaryAttenuation: 10
    volumeCloudsColor:
      serializedVersion: 2
      key0: {r: 0, g: 0, b: 0, a: 1}
      key1: {r: 0, g: 0, b: 0, a: 1}
      key2: {r: 0.09019608, g: 0.09019608, b: 0.101960786, a: 0}
      key3: {r: 1, g: 0.5803922, b: 0.30980393, a: 0}
      key4: {r: 0.73333335, g: 0.8156863, b: 0.85490197, a: 0}
      key5: {r: 0.7647059, g: 0.8627451, b: 0.91764706, a: 0}
      key6: {r: 0, g: 0, b: 0, a: 0}
      key7: {r: 0, g: 0, b: 0, a: 0}
      ctime0: 0
      ctime1: 13493
      ctime2: 30455
      ctime3: 33731
      ctime4: 38743
      ctime5: 65535
      ctime6: 0
      ctime7: 0
      atime0: 0
      atime1: 65535
      atime2: 0
      atime3: 0
      atime4: 0
      atime5: 0
      atime6: 0
      atime7: 0
      m_Mode: 0
      m_NumColorKeys: 6
      m_NumAlphaKeys: 2
    volumeCloudsMoonColor:
      serializedVersion: 2
      key0: {r: 0, g: 0, b: 0, a: 1}
      key1: {r: 0.19215687, g: 0.20784314, b: 0.23529412, a: 1}
      key2: {r: 0, g: 0, b: 0, a: 0}
      key3: {r: 0, g: 0, b: 0, a: 0}
      key4: {r: 0, g: 0, b: 0, a: 0}
      key5: {r: 0, g: 0, b: 0, a: 0}
      key6: {r: 0, g: 0, b: 0, a: 0}
      key7: {r: 0, g: 0, b: 0, a: 0}
      ctime0: 0
      ctime1: 65535
      ctime2: 0
      ctime3: 0
      ctime4: 0
      ctime5: 0
      ctime6: 0
      ctime7: 0
      atime0: 0
      atime1: 65535
      atime2: 0
      atime3: 0
      atime4: 0
      atime5: 0
      atime6: 0
      atime7: 0
      m_Mode: 0
      m_NumColorKeys: 2
      m_NumAlphaKeys: 2
    directLightIntensity:
      serializedVersion: 2
      m_Curve:
      - serializedVersion: 3
        time: -0.008333334
        value: 0.036597714
        inSlope: 0
        outSlope: 0
        tangentMode: 0
        weightedMode: 0
        inWeight: 0.33333334
        outWeight: 0.33333334
      - serializedVersion: 3
        time: 0.38022348
        value: 0.030045863
        inSlope: -0.05137701
        outSlope: -0.05137701
        tangentMode: 0
        weightedMode: 0
        inWeight: 0.33333334
        outWeight: 0.33333334
      - serializedVersion: 3
        time: 0.47889876
        value: -0.00044329406
        inSlope: -0.00418248
        outSlope: -0.00418248
        tangentMode: 0
        weightedMode: 0
        inWeight: 0.33333334
        outWeight: 0.33333334
      - serializedVersion: 3
        time: 0.5250003
        value: 0.14368314
        inSlope: 0.046046156
        outSlope: 0.046046156
        tangentMode: 0
        weightedMode: 0
        inWeight: 0.33333334
        outWeight: 0.33333334
      - serializedVersion: 3
        time: 1
        value: 0.15
        inSlope: 0
        outSlope: 0
        tangentMode: 0
        weightedMode: 0
        inWeight: 0.33333334
        outWeight: 0.33333334
      m_PreInfinity: 2
      m_PostInfinity: 2
      m_RotationOrder: 0
    ambientLightIntensity:
      serializedVersion: 2
      m_Curve:
      - serializedVersion: 3
        time: 0
        value: 0.017
        inSlope: 0
        outSlope: 0
        tangentMode: 0
        weightedMode: 0
        inWeight: 0.33333334
        outWeight: 0.33333334
      - serializedVersion: 3
        time: 0.46
        value: 0
        inSlope: -0.00041219013
        outSlope: -0.00041219013
        tangentMode: 0
        weightedMode: 0
        inWeight: 0.33333334
        outWeight: 0.33333334
      - serializedVersion: 3
        time: 0.617
        value: 0.35
        inSlope: 0
        outSlope: 0
        tangentMode: 0
        weightedMode: 0
        inWeight: 0.33333334
        outWeight: 0.33333334
      - serializedVersion: 3
        time: 1
        value: 0.3
        inSlope: 0
        outSlope: 0
        tangentMode: 0
        weightedMode: 0
        inWeight: 0.33333334
        outWeight: 0.33333334
      m_PreInfinity: 2
      m_PostInfinity: 2
      m_RotationOrder: 0
    tonemapping: 1
    cloudsExposure: 1.5
    farCloudsLOD: 1
    weatherMapTiling: 5
    customWeatherMap: {fileID: 0}
    locationOffset: {x: 0, y: 0}
    weatherAnimSpeedScale: 0.333
    baseNoiseUV: 26
    detailNoiseUV: 1
    detailQuality: 0
    globalCloudCoverage: 1
    cirrusCloudsTexture: {fileID: 2800000, guid: 724998a51cd1bcf438cdc5ca572beef4,
      type: 3}
    cirrusCloudsColor:
      serializedVersion: 2
      key0: {r: 0.09019608, g: 0.09019608, b: 0.101960786, a: 1}
      key1: {r: 0.09019608, g: 0.09019608, b: 0.101960786, a: 1}
      key2: {r: 0.5294118, g: 0.33333334, b: 0.14901961, a: 0}
      key3: {r: 0.72156864, g: 0.72156864, b: 0.72156864, a: 0}
      key4: {r: 0.93333334, g: 0.9411765, b: 1, a: 0}
      key5: {r: 1, g: 1, b: 1, a: 0}
      key6: {r: 0.9254902, g: 0.93333334, b: 1, a: 0}
      key7: {r: 0, g: 0, b: 0, a: 0}
      ctime0: 0
      ctime1: 30697
      ctime2: 32982
      ctime3: 36551
      ctime4: 38122
      ctime5: 65535
      ctime6: 65535
      ctime7: 0
      atime0: 0
      atime1: 65535
      atime2: 0
      atime3: 0
      atime4: 0
      atime5: 0
      atime6: 0
      atime7: 0
      m_Mode: 0
      m_NumColorKeys: 6
      m_NumAlphaKeys: 2
    cirrusCloudsAltitude: 10
    flatCloudsNoiseTexture: {fileID: 2800000, guid: c7234e1638b0900438834895bdf44729,
      type: 3}
    flatCloudsResolution: 2
    flatCloudsColor:
      serializedVersion: 2
      key0: {r: 0.09019608, g: 0.09019608, b: 0.101960786, a: 1}
      key1: {r: 0.09019608, g: 0.09019608, b: 0.101960786, a: 1}
      key2: {r: 0.9490196, g: 0.75686276, b: 0.5647059, a: 0}
      key3: {r: 0.72156864, g: 0.72156864, b: 0.72156864, a: 0}
      key4: {r: 0.93333334, g: 0.9411765, b: 1, a: 0}
      key5: {r: 0.8235294, g: 0.8901961, b: 1, a: 0}
      key6: {r: 1, g: 1, b: 1, a: 0}
      key7: {r: 0, g: 0, b: 0, a: 0}
      ctime0: 0
      ctime1: 31226
      ctime2: 33539
      ctime3: 35659
      ctime4: 39835
      ctime5: 65535
      ctime6: 65535
      ctime7: 0
      atime0: 0
      atime1: 65535
      atime2: 0
      atime3: 0
      atime4: 0
      atime5: 0
      atime6: 0
      atime7: 0
      m_Mode: 0
      m_NumColorKeys: 6
      m_NumAlphaKeys: 2
    flatCloudsScale: 2
    flatCloudsNoiseOctaves: 5
    flatCloudsAltitude: 70
    shadowIntensity: 1
    shadowCookieSize: 7332
  weatherSettings:
    useTag: 0
    wetnessAccumulationSpeed: 0.05
    wetnessDryingSpeed: 0.05
    snowAccumulationSpeed: 0.05
    snowMeltingSpeed: 0.05
    cloudTransitionSpeed: 1
    fogTransitionSpeed: 1
    effectTransitionSpeed: 1
    audioTransitionSpeed: 0.1
  fogSettings:
    Fogmode: 2
    useSimpleFog: 1
    distanceFog: 1
    useRadialDistance: 1
    startDistance: 4.27
    distanceFogIntensity: 10
    maximumFogDensity: 1
    heightFog: 1
    height: 13.18
    heightFogIntensity: 0.837
    heightDensity: 1
    noiseIntensity: 0.952
    noiseIntensityOffset: 0.242
    noiseScale: 0.0292
    noiseVelocity: {x: 3, y: 1.5}
    mie: 5
    g: 5
    fogDitheringScale: 240
    fogDitheringIntensity: 0.5
    skyFogIntensity: 0.6110003
  lightshaftsSettings:
    resolution: 0
    screenBlendMode: 0
    useDepthTexture: 0
    lightShaftsColorSun:
      serializedVersion: 2
      key0: {r: 1, g: 0.4392157, b: 0.23529412, a: 1}
      key1: {r: 1, g: 0.3647059, b: 0, a: 1}
      key2: {r: 1, g: 0.95686275, b: 0.8745098, a: 0}
      key3: {r: 1, g: 1, b: 1, a: 0}
      key4: {r: 0, g: 0, b: 0, a: 0}
      key5: {r: 0, g: 0, b: 0, a: 0}
      key6: {r: 0, g: 0, b: 0, a: 0}
      key7: {r: 0, g: 0, b: 0, a: 0}
      ctime0: 0
      ctime1: 30801
      ctime2: 42598
      ctime3: 65535
      ctime4: 0
      ctime5: 0
      ctime6: 0
      ctime7: 0
      atime0: 0
      atime1: 65535
      atime2: 0
      atime3: 0
      atime4: 0
      atime5: 0
      atime6: 0
      atime7: 0
      m_Mode: 0
      m_NumColorKeys: 4
      m_NumAlphaKeys: 2
    lightShaftsColorMoon:
      serializedVersion: 2
      key0: {r: 0.5803922, g: 0.65882355, b: 0.8980392, a: 1}
      key1: {r: 0.5803922, g: 0.65882355, b: 0.8980392, a: 1}
      key2: {r: 0, g: 0, b: 0, a: 0}
      key3: {r: 0, g: 0, b: 0, a: 0}
      key4: {r: 0, g: 0, b: 0, a: 0}
      key5: {r: 0, g: 0, b: 0, a: 0}
      key6: {r: 0, g: 0, b: 0, a: 0}
      key7: {r: 0, g: 0, b: 0, a: 0}
      ctime0: 0
      ctime1: 65535
      ctime2: 0
      ctime3: 0
      ctime4: 0
      ctime5: 0
      ctime6: 0
      ctime7: 0
      atime0: 0
      atime1: 65535
      atime2: 0
      atime3: 0
      atime4: 0
      atime5: 0
      atime6: 0
      atime7: 0
      m_Mode: 0
      m_NumColorKeys: 2
      m_NumAlphaKeys: 2
    thresholdColorSun:
      serializedVersion: 2
      key0: {r: 0.11372549, g: 0.11372549, b: 0.11372549, a: 1}
      key1: {r: 0.11372549, g: 0.11372549, b: 0.11372549, a: 1}
      key2: {r: 0.6509804, g: 0.6509804, b: 0.6509804, a: 0}
      key3: {r: 0.8156863, g: 0.8156863, b: 0.8156863, a: 0}
      key4: {r: 0.7647059, g: 0.7647059, b: 0.7647059, a: 0}
      key5: {r: 0, g: 0, b: 0, a: 0}
      key6: {r: 0, g: 0, b: 0, a: 0}
      key7: {r: 0, g: 0, b: 0, a: 0}
      ctime0: 0
      ctime1: 28180
      ctime2: 35389
      ctime3: 42598
      ctime4: 65535
      ctime5: 0
      ctime6: 0
      ctime7: 0
      atime0: 0
      atime1: 65535
      atime2: 0
      atime3: 0
      atime4: 0
      atime5: 0
      atime6: 0
      atime7: 0
      m_Mode: 0
      m_NumColorKeys: 5
      m_NumAlphaKeys: 2
    thresholdColorMoon:
      serializedVersion: 2
      key0: {r: 0.043137256, g: 0.043137256, b: 0.043137256, a: 1}
      key1: {r: 0, g: 0, b: 0, a: 1}
      key2: {r: 0, g: 0, b: 0, a: 0}
      key3: {r: 0, g: 0, b: 0, a: 0}
      key4: {r: 0, g: 0, b: 0, a: 0}
      key5: {r: 0, g: 0, b: 0, a: 0}
      key6: {r: 0, g: 0, b: 0, a: 0}
      key7: {r: 0, g: 0, b: 0, a: 0}
      ctime0: 0
      ctime1: 65535
      ctime2: 0
      ctime3: 0
      ctime4: 0
      ctime5: 0
      ctime6: 0
      ctime7: 0
      atime0: 0
      atime1: 65535
      atime2: 0
      atime3: 0
      atime4: 0
      atime5: 0
      atime6: 0
      atime7: 0
      m_Mode: 0
      m_NumColorKeys: 2
      m_NumAlphaKeys: 2
    blurRadius: 6
    intensity: 0.6
    maxRadius: 10
  seasonsSettings:
    SpringInDays: 90
    SummerInDays: 93
    AutumnInDays: 92
    WinterInDays: 90
  audioSettings:
    ThunderSFX:
    - {fileID: 8300000, guid: 75cb3b7de46a97b4bbd4b4fd2dcc2b50, type: 3}
    - {fileID: 8300000, guid: ce53c01354790ae4dad1d74800487066, type: 3}
    - {fileID: 8300000, guid: 7bff45a3e770cbc48b170ce323aed3af, type: 3}
    - {fileID: 8300000, guid: eb8c1b0f82ffe784da2459bc295b4854, type: 3}
    - {fileID: 8300000, guid: e410de94ef87c1b4998b2d4731a717bc, type: 3}
    - {fileID: 8300000, guid: 0ae49160148d1e540b5a43b368cf77c5, type: 3}
    - {fileID: 8300000, guid: 46a48432833534046849d015a9b97991, type: 3}
    - {fileID: 8300000, guid: ab04243538787714d99698a6403052e2, type: 3}
  satelliteSettings:
    additionalSatellites: []
  qualitySettings:
    GlobalParticleEmissionRates: 1
    UpdateInterval: 0.5
  viewMode: 1
  showPlayerSetup: 1
  showRenderingSetup: 1
  showComponentsSetup: 0
  showTimeUI: 1
  showWeatherUI: 1
  showAudioUI: 1
  showEffectsUI: 1
  modified: 1
