%YAML 1.1
%TAG !u! tag:unity3d.com,2011:
--- !u!114 &11400000
MonoBehaviour:
  m_ObjectHideFlags: 0
  m_CorrespondingSourceObject: {fileID: 0}
  m_PrefabInstance: {fileID: 0}
  m_PrefabAsset: {fileID: 0}
  m_GameObject: {fileID: 0}
  m_Enabled: 1
  m_EditorHideFlags: 0
  m_Script: {fileID: 11500000, guid: ad9e871a73fc09d488bc058f3b382b35, type: 3}
  m_Name: Cloudy 3
  m_EditorClassIdentifier: 
  version: 1.9.0
  Name: Cloudy 3
  Spring: 1
  possibiltyInSpring: 38.9
  Summer: 1
  possibiltyInSummer: 49.3
  Autumn: 1
  possibiltyInAutumn: 41.8
  winter: 1
  possibiltyInWinter: 54.5
  cloudsConfig:
    topColor: {r: 0.9264706, g: 0.9264706, b: 0.9264706, a: 1}
    bottomColor: {r: 0.56931233, g: 0.6349854, b: 0.66176474, a: 1}
    skyBlending: 0.924
    alphaCoef: 2
    scatteringCoef: 0.285
    density: 2
    coverage: 0.63
    coverageHeight: 2
    raymarchingScale: 1
    cloudType: 1
    cirrusAlpha: 1
    cirrusCoverage: 0
    cirrusColorPow: 1.8
    flatAlpha: 1.432
    flatCoverage: 0.41
    flatSoftness: 0.1
    flatBrightness: 0.845
    flatColorPow: 1.54
  fogStartDistance: 0
  fogDistance: 0
  fogDensity: 0.0001
  weatherSkyMod:
    serializedVersion: 2
    key0: {r: 1, g: 1, b: 1, a: 0}
    key1: {r: 1, g: 1, b: 1, a: 0}
    key2: {r: 0, g: 0, b: 0, a: 0}
    key3: {r: 0, g: 0, b: 0, a: 0}
    key4: {r: 0, g: 0, b: 0, a: 0}
    key5: {r: 0, g: 0, b: 0, a: 0}
    key6: {r: 0, g: 0, b: 0, a: 0}
    key7: {r: 0, g: 0, b: 0, a: 0}
    ctime0: 0
    ctime1: 65535
    ctime2: 0
    ctime3: 0
    ctime4: 0
    ctime5: 0
    ctime6: 0
    ctime7: 0
    atime0: 0
    atime1: 65535
    atime2: 0
    atime3: 0
    atime4: 0
    atime5: 0
    atime6: 0
    atime7: 0
    m_Mode: 0
    m_NumColorKeys: 2
    m_NumAlphaKeys: 2
  weatherLightMod:
    serializedVersion: 2
    key0: {r: 1, g: 1, b: 1, a: 0}
    key1: {r: 1, g: 1, b: 1, a: 0}
    key2: {r: 0, g: 0, b: 0, a: 0}
    key3: {r: 0, g: 0, b: 0, a: 0}
    key4: {r: 0, g: 0, b: 0, a: 0}
    key5: {r: 0, g: 0, b: 0, a: 0}
    key6: {r: 0, g: 0, b: 0, a: 0}
    key7: {r: 0, g: 0, b: 0, a: 0}
    ctime0: 0
    ctime1: 65535
    ctime2: 0
    ctime3: 0
    ctime4: 0
    ctime5: 0
    ctime6: 0
    ctime7: 0
    atime0: 0
    atime1: 65535
    atime2: 0
    atime3: 0
    atime4: 0
    atime5: 0
    atime6: 0
    atime7: 0
    m_Mode: 0
    m_NumColorKeys: 2
    m_NumAlphaKeys: 2
  weatherFogMod:
    serializedVersion: 2
    key0: {r: 0, g: 0, b: 0, a: 0.9411765}
    key1: {r: 0, g: 0, b: 0, a: 0.88235295}
    key2: {r: 0.68235296, g: 0.7058824, b: 0.88235295, a: 0}
    key3: {r: 0.42352942, g: 0.54901963, b: 0.7490196, a: 0.7058824}
    key4: {r: 0, g: 0, b: 0, a: 0}
    key5: {r: 0, g: 0, b: 0, a: 0}
    key6: {r: 0, g: 0, b: 0, a: 0}
    key7: {r: 0, g: 0, b: 0, a: 0}
    ctime0: 0
    ctime1: 36979
    ctime2: 38407
    ctime3: 65535
    ctime4: 0
    ctime5: 0
    ctime6: 0
    ctime7: 0
    atime0: 0
    atime1: 34409
    atime2: 36979
    atime3: 65535
    atime4: 0
    atime5: 0
    atime6: 0
    atime7: 0
    m_Mode: 0
    m_NumColorKeys: 4
    m_NumAlphaKeys: 4
  volumeLightIntensity: 1
  heightFogDensity: 1
  SkyFogHeight: 2
  SkyFogIntensity: 1.42
  FogScatteringIntensity: 1.26
  fogSunBlocking: 1
  effectSystems: []
  WindStrenght: 0.275
  wetnessLevel: 0
  snowLevel: 0
  isLightningStorm: 0
  lightningInterval: 10
  weatherSFX: {fileID: 0}
  SpringDayAmbient: {fileID: 8300000, guid: ce917758e82eec84dabb1ff43c16b92c, type: 3}
  SpringNightAmbient: {fileID: 8300000, guid: 81f1031d2329f8541969b05494e7c526, type: 3}
  SummerDayAmbient: {fileID: 8300000, guid: ce917758e82eec84dabb1ff43c16b92c, type: 3}
  SummerNightAmbient: {fileID: 8300000, guid: 81f1031d2329f8541969b05494e7c526, type: 3}
  AutumnDayAmbient: {fileID: 8300000, guid: ce917758e82eec84dabb1ff43c16b92c, type: 3}
  AutumnNightAmbient: {fileID: 8300000, guid: 81f1031d2329f8541969b05494e7c526, type: 3}
  WinterDayAmbient: {fileID: 0}
  WinterNightAmbient: {fileID: 0}
