%YAML 1.1
%TAG !u! tag:unity3d.com,2011:
--- !u!114 &11400000
MonoBehaviour:
  m_ObjectHideFlags: 0
  m_CorrespondingSourceObject: {fileID: 0}
  m_PrefabInstance: {fileID: 0}
  m_PrefabAsset: {fileID: 0}
  m_GameObject: {fileID: 0}
  m_Enabled: 1
  m_EditorHideFlags: 0
  m_Script: {fileID: 11500000, guid: ad9e871a73fc09d488bc058f3b382b35, type: 3}
  m_Name: Heavy Rain
  m_EditorClassIdentifier: 
  version: 1.9.0
  Name: Heavy Rain
  Spring: 1
  possibiltyInSpring: 100
  Summer: 1
  possibiltyInSummer: 52
  Autumn: 1
  possibiltyInAutumn: 100
  winter: 0
  possibiltyInWinter: 100
  cloudsConfig:
    topColor: {r: 0.29411763, g: 0.29411763, b: 0.29411763, a: 1}
    bottomColor: {r: 0.14705884, g: 0.14705884, b: 0.14705884, a: 1}
    skyBlending: 1
    alphaCoef: 3.14
    scatteringCoef: 0.027
    density: 1.844
    coverage: 2
    coverageHeight: 2
    raymarchingScale: 1
    cloudType: 1
    cirrusAlpha: 0
    cirrusCoverage: 0
    cirrusColorPow: 1
    flatAlpha: 1.188
    flatCoverage: 0.886
    flatSoftness: 0.785
    flatBrightness: 0.34
    flatColorPow: 2.41
  fogStartDistance: 0
  fogDistance: 0
  fogDensity: 0.0003
  weatherSkyMod:
    serializedVersion: 2
    key0: {r: 0, g: 0, b: 0, a: 1}
    key1: {r: 0, g: 0, b: 0, a: 0.93333334}
    key2: {r: 0.19852942, g: 0.19852942, b: 0.19852942, a: 1}
    key3: {r: 0.33088237, g: 0.33088237, b: 0.33088237, a: 1}
    key4: {r: 0.5058824, g: 0.5058824, b: 0.5058824, a: 0}
    key5: {r: 0, g: 0, b: 0, a: 0}
    key6: {r: 0, g: 0, b: 0, a: 0}
    key7: {r: 0, g: 0, b: 0, a: 0}
    ctime0: 0
    ctime1: 29491
    ctime2: 32768
    ctime3: 65535
    ctime4: 65535
    ctime5: 0
    ctime6: 0
    ctime7: 0
    atime0: 0
    atime1: 30554
    atime2: 32768
    atime3: 65535
    atime4: 65535
    atime5: 0
    atime6: 0
    atime7: 0
    m_Mode: 0
    m_NumColorKeys: 4
    m_NumAlphaKeys: 4
  weatherLightMod:
    serializedVersion: 2
    key0: {r: 0, g: 0, b: 0, a: 0}
    key1: {r: 0, g: 0, b: 0, a: 0.050980393}
    key2: {r: 0.43137255, g: 0.43137255, b: 0.43137255, a: 0.7647059}
    key3: {r: 0.42352942, g: 0.42352942, b: 0.42352942, a: 0.91764706}
    key4: {r: 0, g: 0, b: 0, a: 0}
    key5: {r: 0, g: 0, b: 0, a: 0}
    key6: {r: 0, g: 0, b: 0, a: 0}
    key7: {r: 0, g: 0, b: 0, a: 0}
    ctime0: 0
    ctime1: 29491
    ctime2: 32768
    ctime3: 65535
    ctime4: 0
    ctime5: 0
    ctime6: 0
    ctime7: 0
    atime0: 0
    atime1: 29491
    atime2: 32768
    atime3: 65535
    atime4: 0
    atime5: 0
    atime6: 0
    atime7: 0
    m_Mode: 0
    m_NumColorKeys: 4
    m_NumAlphaKeys: 4
  weatherFogMod:
    serializedVersion: 2
    key0: {r: 0, g: 0, b: 0, a: 1}
    key1: {r: 0, g: 0, b: 0, a: 1}
    key2: {r: 0.09019608, g: 0.09019608, b: 0.09019608, a: 0.9254902}
    key3: {r: 0.12156863, g: 0.12156863, b: 0.12156863, a: 0.9529412}
    key4: {r: 0.12156863, g: 0.12156863, b: 0.12156863, a: 0}
    key5: {r: 0, g: 0, b: 0, a: 0}
    key6: {r: 0, g: 0, b: 0, a: 0}
    key7: {r: 0, g: 0, b: 0, a: 0}
    ctime0: 0
    ctime1: 30412
    ctime2: 33981
    ctime3: 65535
    ctime4: 65535
    ctime5: 0
    ctime6: 0
    ctime7: 0
    atime0: 0
    atime1: 29491
    atime2: 32839
    atime3: 65535
    atime4: 0
    atime5: 0
    atime6: 0
    atime7: 0
    m_Mode: 0
    m_NumColorKeys: 4
    m_NumAlphaKeys: 4
  volumeLightIntensity: 1
  heightFogDensity: 1.95
  SkyFogHeight: 0.96
  SkyFogIntensity: 1.15
  FogScatteringIntensity: 1
  fogSunBlocking: 0
  effectSystems:
  - prefab: {fileID: 1000010755747430, guid: 345f0b3a653208b47b4c607a213b3f46, type: 3}
    localPositionOffset: {x: 0, y: 25, z: 0}
    localRotationOffset: {x: -90, y: 0, z: -180}
  WindStrenght: 0.5
  wetnessLevel: 0.458
  snowLevel: 0
  isLightningStorm: 0
  lightningInterval: 10
  weatherSFX: {fileID: 8300000, guid: e60b9243727bbb5428fbb3e7f7fe44cd, type: 3}
  SpringDayAmbient: {fileID: 0}
  SpringNightAmbient: {fileID: 0}
  SummerDayAmbient: {fileID: 0}
  SummerNightAmbient: {fileID: 0}
  AutumnDayAmbient: {fileID: 0}
  AutumnNightAmbient: {fileID: 0}
  WinterDayAmbient: {fileID: 0}
  WinterNightAmbient: {fileID: 0}
